{
  "template": {
    "tag": "cells-template-paper-drawer-panel",
    "properties": {
      "disableEdgeSwipe": true,
      "headerFixed": true
    }
  },
  "components": [
    {
      "zone": "app__main",
      "familyPath": "../elements/login-dm",
      "tag": "login-dm",
      "properties": {
        "cellsConnections": {
          "in": {
            "ch_doPostLogin": {
              "bind": "doPostLogin"
            }
          },
          "out": {
            "ch_doPostLogin_start" : {
              "bind": "doPostLogin-start"
            },
            "ch_doPostLogin_success" : {
              "bind": "doPostLogin-success",
              "link":{
                  "page": "accounts"
              }
            },
            "ch_doPostLogin_error" : {
              "bind": "doPostLogin-error"
            }
          }
        }
      }
    },
    {
      "zone": "app__main",
      "familyPath": "../elements/login-vw",
      "tag": "login-vw",
      "properties": {
        "cellsConnections": {
          "in": {
            "ch_doPostLogin_error": {
              "bind": "doLoginViewError"
            },
            "ch_doPostLogin_success" : {
              "bind": "doLoginViewSuccess"
            },
            "ch_doPostLogout_success" : {
              "bind": "viewLoginReset"
            },
            "doCancelRegister" : {
              "bind": "viewLoginReset"
            }
          },
          "out": {
            "ch_doPostLogin" : {
              "bind": "login"
            },
            "ch_register" : {
              "bind": "request-register",
              "link":{
                "page": "register"
              }
            },
            "ch_change_user": {
              "bind": "request-change-user"
            }
          }
        }
      }
    }
  ]
}
