{
  "template": {
    "tag": "cells-template-paper-drawer-panel",
    "properties": {
      "disableEdgeSwipe": true,
      "headerFixed": true
    }
  },
  "components": [
    {
      "zone": "app__header",
      "tag": "cells-component-app-header",
      "properties": {
        "text": "Operativa Caja"
      }
    },
    {
      "zone": "app__main",
      "familyPath": "../elements/operation-dm",
      "tag": "operation-dm",
      "properties": {
        "cellsConnections": {
          "in": {
            "ch_doTransaction": {
              "bind": "doPostTransaction"
            }
          },
          "out": {
            "ch_doPostTransaction_start" : {
              "bind": "doPostTransaction-start"
            },
            "ch_doPostTransaction_success" : {
              "bind": "doPostTransaction-success",
              "link":{
                  "page": "transactions"
                }
            },
            "ch_doPostTransaction_error" : {
              "bind": "doPostTransaction-error"
            }
          }
        }
      }
    },
    {
      "zone": "app__main",
      "familyPath": "../elements/operation-vw",
      "tag": "operation-vw",
      "properties": {
        "cellsConnections": {
          "in": {
            "ch_doViewCashTransaction": {
              "bind": "viewCashTransaction"
            },
            "ch_doPostTransaction_error": {
              "bind": "doTransactionViewError"
            }
          },
          "out": {
            "ch_doTransaction" : {
              "bind": "doTransaction"
            },
            "ch_doCancelTransaction" : {
              "bind": "doCancelTransaction",
              "link":{
                "page": "transactions"
              }
            }
          }
        }
      }
    },
    {
      "zone": "app__main",
      "tag": "cells-molecule-spinner-veil",
      "properties": {
        "cellsConnections": {
          "in": {
            "ch_doPostTransaction_start": {
              "bind": "show"
            },
            "ch_doPostTransaction_success": {
              "bind": "hide"
            },
            "ch_doPostTransaction_error": {
              "bind": "hide"
            }
          },
          "out": {
          }
        }
      }
    }
  ]
}
