{
  "template": {
    "tag": "cells-template-paper-drawer-panel",
    "properties": {
      "disableEdgeSwipe": true,
      "headerFixed": true
    }
  },
  "components": [
    {
      "zone": "app__header",
      "tag": "cells-component-app-header",
      "properties": {
        "text": "Movimientos"
      }
    },
    {
      "zone": "app__main",
      "familyPath": "../elements/transaction-dm",
      "tag": "transaction-dm",
      "properties": {
        "cellsConnections": {
          "in": {
            "ch_doGetTransactionIban" : {
              "bind": "doGetTransactionIban"
            },
            "ch_doPostTransaction_success": {
              "bind": "doGetTransactionIban"
            },
            "ch_doDeleteAccount": {
              "bind": "doDeleteAccount"
            },
            "ch_doCancelTransaction" : {
              "bind": "doGetTransactionIban"

            },
            "ch_doPostCurrencyTransaction_success": {
              "bind": "doGetTransactionIban"
            }
          },
          "out": {
            "ch_doGetTransactionIban_start" : {
              "bind": "doGetTransactionIban-start"
            },
            "ch_doGetTransactionIban_success" : {
              "bind": "doGetTransactionIban-success"
            },
            "ch_doGetTransactionIban_error" : {
              "bind": "doGetTransactionIban-error"
            },
            "ch_doDeleteAccount_success" : {
              "bind": "doDeleteAccount-success",
              "link":{
                  "page": "accounts"
              }
            },
            "ch_doDeleteAccount_error" : {
              "bind": "doDeleteAccount-error"
            }
          }
        }
      }
    },
    {
      "zone": "app__main",
      "familyPath": "../elements/transaction-vw",
      "tag": "transaction-vw",
      "properties": {
        "cellsConnections": {
          "in": {
            "ch_doGetTransactionIban_success": {
              "bind": "doTransactionVisualizeSuccess"
            },
            "ch_doGetTransactionIban_error" : {
              "bind": "doTransactionVisualizeError"
            },
            "ch_doDeleteAccount_error" : {
              "bind": "doTransactionVisualizeError"
            }
          },
          "out": {
            "ch_doViewCashTransaction": {
              "bind": "doViewCashTransaction",
              "link":{
                  "page": "operations"
              }
            },
            "ch_doGoAccounts": {
              "bind": "doGoAccounts",
              "link":{
                  "page": "accounts"
              }
            },
            "ch_doDeleteAccount" : {
              "bind": "doClickDeleteAccount"
            },
            "ch_doViewCurrencyTransaction": {
              "bind": "doViewCurrencyTransaction",
              "link":{
                  "page": "exchange"
              }

            }
          }
        }
      }
    },
    {
      "zone": "app__main",
      "tag": "cells-molecule-spinner-veil",
      "properties": {
        "cellsConnections": {
          "in": {
            "ch_doGetTransactionIban_start": {
              "bind": "show"
            },
            "ch_doGetTransactionIban_success": {
              "bind": "hide"
            },
            "ch_doGetTransactionIban_error": {
              "bind": "hide"
            }
          },
          "out": {
          }
        }
      }
    }
  ]
}
